{
    "page": 2,
    "total_results": 19852,
    "total_pages": 993,
    "results": [
        {
            "vote_count": 2,
            "id": 66510,
            "video": false,
            "vote_average": 2,
            "title": "Madrasi",
            "popularity": 56.777,
            "poster_path": "/4F9Y9C5tQqoJbTQfJxLuDiqSOWI.jpg",
            "original_language": "en",
            "original_title": "மதராஸி",
            "genre_ids": [],
            "backdrop_path": "/oa1doNS6XnH1ix5kOp1ITyAFHFe.jpg",
            "adult": false,
            "overview": "Kasi (Arjun) comes to Mumbai to track his parents' killers. He is successful in finding the first two. In order to find the third one he joins a goon Ravi Bhai (Raj Kapoor). This Ravi Bhai is in loggerheads with his own brother, Mani Bhai (Fefsi Vijayn). Mani Bhai runs another gang and the leading goonda in this gang is Siva (Jagapati Babu). Once upon a time in some Jail, Siva and Kasi were good friends. But now they are thirsty for each other's blood. They unite finally when their loved ones are killed.They plot to kill sivas brother by killing vedhika and divert Arjun. Arjun and Vedhika die in the end.",
            "release_date": "2006-07-10"
        },
        {
            "vote_count": 760,
            "id": 479455,
            "video": false,
            "vote_average": 5.9,
            "title": "Men in Black: International",
            "popularity": 51.545,
            "poster_path": "/dPrUPFcgLfNbmDL8V69vcrTyEfb.jpg",
            "original_language": "en",
            "original_title": "Men in Black: International",
            "genre_ids": [
                28,
                35,
                878,
                12
            ],
            "backdrop_path": "/2FYzxgLNuNVwncilzUeCGbOQzP7.jpg",
            "adult": false,
            "overview": "The Men in Black have always protected the Earth from the scum of the universe. In this new adventure, they tackle their biggest, most global threat to date: a mole in the Men in Black organization.",
            "release_date": "2019-06-12"
        },
        {
            "vote_count": 901,
            "id": 373571,
            "video": false,
            "vote_average": 6.3,
            "title": "Godzilla: King of the Monsters",
            "popularity": 50.767,
            "poster_path": "/pU3bnutJU91u3b4IeRPQTOP8jhV.jpg",
            "original_language": "en",
            "original_title": "Godzilla: King of the Monsters",
            "genre_ids": [
                878,
                28
            ],
            "backdrop_path": "/uovH5k4BAEPqXqxgwVrTtqH169g.jpg",
            "adult": false,
            "overview": "Follows the heroic efforts of the crypto-zoological agency Monarch as its members face off against a battery of god-sized monsters, including the mighty Godzilla, who collides with Mothra, Rodan, and his ultimate nemesis, the three-headed King Ghidorah. When these ancient super-species - thought to be mere myths - rise again, they all vie for supremacy, leaving humanity's very existence hanging in the balance.",
            "release_date": "2019-05-29"
        },
        {
            "vote_count": 380,
            "id": 445629,
            "video": false,
            "vote_average": 6.6,
            "title": "Fighting with My Family",
            "popularity": 49.679,
            "poster_path": "/cVhe15rJLRjolunSWLBN6xQLyGU.jpg",
            "original_language": "en",
            "original_title": "Fighting with My Family",
            "genre_ids": [
                35,
                18
            ],
            "backdrop_path": "/mYKP6qcDUimVMAHQWLOuDHjO19S.jpg",
            "adult": false,
            "overview": "Born into a tight-knit wrestling family, Paige and her brother Zak are ecstatic when they get the once-in-a-lifetime opportunity to try out for the WWE. But when only Paige earns a spot in the competitive training program, she must leave her loved ones behind and face this new cutthroat world alone. Paige's journey pushes her to dig deep and ultimately prove to the world that what makes her different is the very thing that can make her a star.",
            "release_date": "2019-02-14"
        },
        {
            "vote_count": 20198,
            "id": 24428,
            "video": false,
            "vote_average": 7.6,
            "title": "The Avengers",
            "popularity": 48.698,
            "poster_path": "/cezWGskPY5x7GaglTTRN4Fugfb8.jpg",
            "original_language": "en",
            "original_title": "The Avengers",
            "genre_ids": [
                878,
                28,
                12
            ],
            "backdrop_path": "/hbn46fQaRmlpBuUrEiFqv0GDL6Y.jpg",
            "adult": false,
            "overview": "When an unexpected enemy emerges and threatens global safety and security, Nick Fury, director of the international peacekeeping agency known as S.H.I.E.L.D., finds himself in need of a team to pull the world back from the brink of disaster. Spanning the globe, a daring recruitment effort begins!",
            "release_date": "2012-04-25"
        },
        {
            "vote_count": 19,
            "id": 454640,
            "video": false,
            "vote_average": 6.2,
            "title": "The Angry Birds Movie 2",
            "popularity": 48.191,
            "poster_path": "/ebe8hJRCwdflNQbUjRrfmqtUiNi.jpg",
            "original_language": "en",
            "original_title": "The Angry Birds Movie 2",
            "genre_ids": [
                16,
                35,
                28,
                12,
                10751
            ],
            "backdrop_path": "/k7sE3loFwuU2mqf7FbZBeE3rjBa.jpg",
            "adult": false,
            "overview": "The flightless birds and scheming green pigs take their beef to the next level.",
            "release_date": "2019-08-02"
        },
        {
            "vote_count": 3,
            "id": 577970,
            "video": false,
            "vote_average": 6.5,
            "title": "Dilan 1991",
            "popularity": 47.933,
            "poster_path": "/gZX9F8Q9QUAKAsGAotlH1fVwHFq.jpg",
            "original_language": "id",
            "original_title": "Dilan 1991",
            "genre_ids": [
                10749,
                18
            ],
            "backdrop_path": "/6kFFYxGNi0sRbjKGIHn2Wev1pnb.jpg",
            "adult": false,
            "overview": "Dilan & Milea are now dating. But as time goes by, Dilan has to choose between his motorcycle club or Milea.",
            "release_date": "2019-02-28"
        },
        {
            "vote_count": 866,
            "id": 456740,
            "video": false,
            "vote_average": 5,
            "title": "Hellboy",
            "popularity": 47.568,
            "poster_path": "/bk8LyaMqUtaQ9hUShuvFznQYQKR.jpg",
            "original_language": "en",
            "original_title": "Hellboy",
            "genre_ids": [
                28,
                12,
                14,
                27,
                878
            ],
            "backdrop_path": "/5BkSkNtfrnTuKOtTaZhl8avn4wU.jpg",
            "adult": false,
            "overview": "Hellboy comes to England, where he must defeat Nimue, Merlin's consort and the Blood Queen. But their battle will bring about the end of the world, a fate he desperately tries to turn away.",
            "release_date": "2019-04-10"
        },
        {
            "vote_count": 81,
            "id": 531509,
            "video": false,
            "vote_average": 6.2,
            "title": "Otherhood",
            "popularity": 46.819,
            "poster_path": "/2qVErJgfMcg3TzfYcrbaXBcrXV9.jpg",
            "original_language": "en",
            "original_title": "Otherhood",
            "genre_ids": [
                35
            ],
            "backdrop_path": "/nDJT0VcjMR39lGHDtR7vRUyCIsb.jpg",
            "adult": false,
            "overview": "Three suburban moms travel to New York City to visit their sons.",
            "release_date": "2019-08-02"
        },
        {
            "vote_count": 8228,
            "id": 424694,
            "video": false,
            "vote_average": 8.1,
            "title": "Bohemian Rhapsody",
            "popularity": 45.954,
            "poster_path": "/lHu1wtNaczFPGFDTrjCSzeLPTKN.jpg",
            "original_language": "en",
            "original_title": "Bohemian Rhapsody",
            "genre_ids": [
                18,
                10402
            ],
            "backdrop_path": "/xcaSYLBhmDzJ6P14bcKe0KTh3QV.jpg",
            "adult": false,
            "overview": "Singer Freddie Mercury, guitarist Brian May, drummer Roger Taylor and bass guitarist John Deacon take the music world by storm when they form the rock 'n' roll band Queen in 1970. Hit songs become instant classics. When Mercury's increasingly wild lifestyle starts to spiral out of control, Queen soon faces its greatest challenge yet – finding a way to keep the band together amid the success and excess.",
            "release_date": "2018-10-24"
        },
        {
            "vote_count": 9,
            "id": 499701,
            "video": false,
            "vote_average": 6.9,
            "title": "Dora and the Lost City of Gold",
            "popularity": 45.5,
            "poster_path": "/xvYCZ740XvngXK0FNeSNVTJJJ5v.jpg",
            "original_language": "en",
            "original_title": "Dora and the Lost City of Gold",
            "genre_ids": [
                12,
                35,
                10751
            ],
            "backdrop_path": "/843PwG97xLcz7TUW8tKDNrOc2sj.jpg",
            "adult": false,
            "overview": "Dora, a girl who has spent most of her life exploring the jungle with her parents, now must navigate her most dangerous adventure yet: high school. Always the explorer, Dora quickly finds herself leading Boots (her best friend, a monkey), Diego, and a rag tag group of teens on an adventure to save her parents and solve the impossible mystery behind a lost Inca civilization.",
            "release_date": "2019-08-08"
        },
        {
            "vote_count": 10517,
            "id": 245891,
            "video": false,
            "vote_average": 7.2,
            "title": "John Wick",
            "popularity": 45.479,
            "poster_path": "/b9uYMMbm87IBFOq59pppvkkkgNg.jpg",
            "original_language": "en",
            "original_title": "John Wick",
            "genre_ids": [
                28,
                53
            ],
            "backdrop_path": "/umC04Cozevu8nn3JTDJ1pc7PVTn.jpg",
            "adult": false,
            "overview": "Ex-hitman John Wick comes out of retirement to track down the gangsters that took everything from him.",
            "release_date": "2014-10-22"
        },
        {
            "vote_count": 55,
            "id": 390634,
            "video": false,
            "vote_average": 5.3,
            "title": "Fate/Stay Night: Heaven’s Feel II. Lost Butterfly",
            "popularity": 45.455,
            "poster_path": "/4tS0iyKQBDFqVpVcH21MSJwXZdq.jpg",
            "original_language": "ja",
            "original_title": "劇場版 Fate／stay night [Heaven's Feel] II. lost butterfly",
            "genre_ids": [
                16,
                28,
                14,
                12
            ],
            "backdrop_path": "/2zKusjJZd8b2Cdk2C5K9dGFNWiJ.jpg",
            "adult": false,
            "overview": "Theatrical-release adaptation of the visual novel \"Fate/stay night\", following the third and final route. (Part 2 of a trilogy.)",
            "release_date": "2019-01-12"
        },
        {
            "vote_count": 8612,
            "id": 122917,
            "video": false,
            "vote_average": 7.3,
            "title": "The Hobbit: The Battle of the Five Armies",
            "popularity": 45.454,
            "poster_path": "/9zRzFJuaj0CHIOhAkcCcFTvyu2X.jpg",
            "original_language": "en",
            "original_title": "The Hobbit: The Battle of the Five Armies",
            "genre_ids": [
                28,
                12,
                14
            ],
            "backdrop_path": "/qhH3GyIfAnGv1pjdV3mw03qAilg.jpg",
            "adult": false,
            "overview": "Immediately after the events of The Desolation of Smaug, Bilbo and the dwarves try to defend Erebor's mountain of treasure from others who claim it: the men of the ruined Laketown and the elves of Mirkwood. Meanwhile an army of Orcs led by Azog the Defiler is marching on Erebor, fueled by the rise of the dark lord Sauron. Dwarves, elves and men must unite, and the hope for Middle-Earth falls into Bilbo's hands.",
            "release_date": "2014-12-10"
        },
        {
            "vote_count": 1721,
            "id": 329996,
            "video": false,
            "vote_average": 6.5,
            "title": "Dumbo",
            "popularity": 44.581,
            "poster_path": "/A7XkpLfNH0El2yyDLc4b0KLAKvE.jpg",
            "original_language": "en",
            "original_title": "Dumbo",
            "genre_ids": [
                12,
                10751,
                14
            ],
            "backdrop_path": "/5tFt6iuGnKapHl5tw0X0cKcnuVo.jpg",
            "adult": false,
            "overview": "A young elephant, whose oversized ears enable him to fly, helps save a struggling circus, but when the circus plans a new venture, Dumbo and his friends discover dark secrets beneath its shiny veneer.",
            "release_date": "2019-03-27"
        },
        {
            "vote_count": 2336,
            "id": 166428,
            "video": false,
            "vote_average": 7.6,
            "title": "How to Train Your Dragon: The Hidden World",
            "popularity": 44.485,
            "poster_path": "/xvx4Yhf0DVH8G4LzNISpMfFBDy2.jpg",
            "original_language": "en",
            "original_title": "How to Train Your Dragon: The Hidden World",
            "genre_ids": [
                16,
                10751,
                12
            ],
            "backdrop_path": "/lFwykSz3Ykj1Q3JXJURnGUTNf1o.jpg",
            "adult": false,
            "overview": "As Hiccup fulfills his dream of creating a peaceful dragon utopia, Toothless’ discovery of an untamed, elusive mate draws the Night Fury away. When danger mounts at home and Hiccup’s reign as village chief is tested, both dragon and rider must make impossible decisions to save their kind.",
            "release_date": "2019-01-03"
        },
        {
            "vote_count": 0,
            "id": 449924,
            "video": false,
            "vote_average": 0,
            "title": "Ip Man 4",
            "popularity": 44.047,
            "poster_path": "/mAWBfTDAmfpvQGMVFuzuVl49N1P.jpg",
            "original_language": "cn",
            "original_title": "葉問4",
            "genre_ids": [
                28,
                18,
                36
            ],
            "backdrop_path": "/ekP6EVxL81lZ4ivcqPsoZ72rY0h.jpg",
            "adult": false,
            "overview": "Ip Man 4 is an upcoming Hong Kong biographical martial arts film directed by Wilson Yip and produced by Raymond Wong. It is the fourth in the Ip Man film series based on the life of the Wing Chun grandmaster of the same name and features Donnie Yen reprising the role. The film began production in April 2018 and ended in July the same year.",
            "release_date": "2019-10-18"
        },
        {
            "vote_count": 12909,
            "id": 284054,
            "video": false,
            "vote_average": 7.4,
            "title": "Black Panther",
            "popularity": 43.841,
            "poster_path": "/uxzzxijgPIY7slzFvMotPv8wjKA.jpg",
            "original_language": "en",
            "original_title": "Black Panther",
            "genre_ids": [
                28,
                12,
                14,
                878
            ],
            "backdrop_path": "/6ELJEzQJ3Y45HczvreC3dg0GV5R.jpg",
            "adult": false,
            "overview": "King T'Challa returns home from America to the reclusive, technologically advanced African nation of Wakanda to serve as his country's new leader. However, T'Challa soon finds that he is challenged for the throne by factions within his own country as well as without. Using powers reserved to Wakandan kings, T'Challa assumes the Black Panther mantel to join with girlfriend Nakia, the queen-mother, his princess-kid sister, members of the Dora Milaje (the Wakandan 'special forces') and an American secret agent, to prevent Wakanda from being dragged into a world war.",
            "release_date": "2018-02-13"
        },
        {
            "vote_count": 11861,
            "id": 284053,
            "video": false,
            "vote_average": 7.5,
            "title": "Thor: Ragnarok",
            "popularity": 43.599,
            "poster_path": "/rzRwTcFvttcN1ZpX2xv4j3tSdJu.jpg",
            "original_language": "en",
            "original_title": "Thor: Ragnarok",
            "genre_ids": [
                28,
                12,
                35,
                14
            ],
            "backdrop_path": "/kaIfm5ryEOwYg8mLbq8HkPuM1Fo.jpg",
            "adult": false,
            "overview": "Thor is imprisoned on the other side of the universe and finds himself in a race against time to get back to Asgard to stop Ragnarok, the destruction of his home-world and the end of Asgardian civilization, at the hands of an all-powerful new threat, the ruthless Hela.",
            "release_date": "2017-10-25"
        },
        {
            "vote_count": 579,
            "id": 480414,
            "video": false,
            "vote_average": 5.5,
            "title": "The Curse of La Llorona",
            "popularity": 43.295,
            "poster_path": "/jhZlXSnFUpNiLAek9EkPrtLEWQI.jpg",
            "original_language": "en",
            "original_title": "The Curse of La Llorona",
            "genre_ids": [
                53,
                27,
                9648
            ],
            "backdrop_path": "/drpgGlcOarywXgwhb4Dap9QtSlg.jpg",
            "adult": false,
            "overview": "A social worker dealing with the disappearance of two children fears for her own family after beginning the investigation.",
            "release_date": "2019-04-17"
        }
    ]
}
