{
   "page":2,
   "total_results":19818,
   "total_pages":991,
   "results":[
      {
         "vote_count":6357,
         "id":424694,
         "video":false,
         "vote_average":8.1,
         "title":"Bohemian Rhapsody",
         "popularity":80.886,
         "poster_path":"/lHu1wtNaczFPGFDTrjCSzeLPTKN.jpg",
         "original_language":"en",
         "original_title":"Bohemian Rhapsody",
         "genre_ids":[
            18,
            10402
         ],
         "backdrop_path":"/xcaSYLBhmDzJ6P14bcKe0KTh3QV.jpg",
         "adult":false,
         "overview":"Singer Freddie Mercury, guitarist Brian May, drummer Roger Taylor and bass guitarist John Deacon take the music world by storm when they form the rock 'n' roll band Queen in 1970. Hit songs become instant classics. When Mercury's increasingly wild lifestyle starts to spiral out of control, Queen soon faces its greatest challenge yet – finding a way to keep the band together amid the success and excess.",
         "release_date":"2018-10-24"
      },
      {
         "vote_count":61,
         "id":458723,
         "video":false,
         "vote_average":7.1,
         "title":"Us",
         "popularity":78.063,
         "poster_path":"/ux2dU1jQ2ACIMShzB3yP93Udpzc.jpg",
         "original_language":"en",
         "original_title":"Us",
         "genre_ids":[
            53,
            27
         ],
         "backdrop_path":"/AiG8iWpFtFSXAdhStWu6qBaqmv9.jpg",
         "adult":false,
         "overview":"Husband and wife Gabe and Adelaide Wilson take their kids to their beach house expecting to unplug and unwind with friends. But as night descends, their serenity turns to tension and chaos when some shocking visitors arrive uninvited.",
         "release_date":"2019-03-14"
      },
      {
         "vote_count":11,
         "id":400157,
         "video":false,
         "vote_average":6.3,
         "title":"Wonder Park",
         "popularity":73.295,
         "poster_path":"/elUcnFlkQnx8ucyCTCWIi6HRa3w.jpg",
         "original_language":"en",
         "original_title":"Wonder Park",
         "genre_ids":[
            35,
            16,
            12,
            10751,
            14
         ],
         "backdrop_path":"/nJyAdKPnW15IAvC6sLBTE0lp6Dv.jpg",
         "adult":false,
         "overview":"The story of a magnificent amusement park where the imagination of a wildly creative girl named June comes alive.",
         "release_date":"2019-03-14"
      },
      {
         "vote_count":16991,
         "id":118340,
         "video":false,
         "vote_average":7.9,
         "title":"Guardians of the Galaxy",
         "popularity":71.847,
         "poster_path":"/y31QB9kn3XSudA15tV7UWQ9XLuW.jpg",
         "original_language":"en",
         "original_title":"Guardians of the Galaxy",
         "genre_ids":[
            28,
            878,
            12
         ],
         "backdrop_path":"/bHarw8xrmQeqf3t8HpuMY7zoK4x.jpg",
         "adult":false,
         "overview":"Light years from Earth, 26 years after being abducted, Peter Quill finds himself the prime target of a manhunt after discovering an orb wanted by Ronan the Accuser.",
         "release_date":"2014-07-30"
      },
      {
         "vote_count":19402,
         "id":293660,
         "video":false,
         "vote_average":7.5,
         "title":"Deadpool",
         "popularity":71.644,
         "poster_path":"/inVq3FRqcYIRl2la8iZikYYxFNR.jpg",
         "original_language":"en",
         "original_title":"Deadpool",
         "genre_ids":[
            28,
            12,
            35
         ],
         "backdrop_path":"/n1y094tVDFATSzkTnFxoGZ1qNsG.jpg",
         "adult":false,
         "overview":"Deadpool tells the origin story of former Special Forces operative turned mercenary Wade Wilson, who after being subjected to a rogue experiment that leaves him with accelerated healing powers, adopts the alter ego Deadpool. Armed with his new abilities and a dark, twisted sense of humor, Deadpool hunts down the man who nearly destroyed his life.",
         "release_date":"2016-02-09"
      },
      {
         "vote_count":0,
         "id":299534,
         "video":false,
         "vote_average":0,
         "title":"Avengers: Endgame",
         "popularity":69.827,
         "poster_path":"/bJLYrLIHT1r7cikhWGbpZkxlUpA.jpg",
         "original_language":"en",
         "original_title":"Avengers: Endgame",
         "genre_ids":[
            12,
            878,
            28
         ],
         "backdrop_path":"/a3rY8SHbF4NwMRI7zG52ZSd5Y9i.jpg",
         "adult":false,
         "overview":"After the devastating events of Avengers: Infinity War, the universe is in ruins due to the efforts of the Mad Titan, Thanos. With the help of remaining allies, the Avengers must assemble once more in order to undo Thanos' actions and restore order to the universe once and for all, no matter what consequences may be in store.",
         "release_date":"2019-04-24"
      },
      {
         "vote_count":110,
         "id":487297,
         "video":false,
         "vote_average":5.4,
         "title":"What Men Want",
         "popularity":69.328,
         "poster_path":"/30IiwvIRqPGjUV0bxJkZfnSiCL.jpg",
         "original_language":"en",
         "original_title":"What Men Want",
         "genre_ids":[
            35,
            14,
            10749
         ],
         "backdrop_path":"/umecegsPpKr2ZXA62Da9CQBVoIO.jpg",
         "adult":false,
         "overview":"Magically able to hear what men are thinking, a sports agent uses her newfound ability to turn the tables on her overbearing male colleagues.",
         "release_date":"2019-02-08"
      },
      {
         "vote_count":11258,
         "id":284054,
         "video":false,
         "vote_average":7.4,
         "title":"Black Panther",
         "popularity":68.651,
         "poster_path":"/uxzzxijgPIY7slzFvMotPv8wjKA.jpg",
         "original_language":"en",
         "original_title":"Black Panther",
         "genre_ids":[
            28,
            12,
            14,
            878
         ],
         "backdrop_path":"/6ELJEzQJ3Y45HczvreC3dg0GV5R.jpg",
         "adult":false,
         "overview":"King T'Challa returns home from America to the reclusive, technologically advanced African nation of Wakanda to serve as his country's new leader. However, T'Challa soon finds that he is challenged for the throne by factions within his own country as well as without. Using powers reserved to Wakandan kings, T'Challa assumes the Black Panther mantel to join with girlfriend Nakia, the queen-mother, his princess-kid sister, members of the Dora Milaje (the Wakandan 'special forces') and an American secret agent, to prevent Wakanda from being dragged into a world war.",
         "release_date":"2018-02-13"
      },
      {
         "vote_count":3346,
         "id":337167,
         "video":false,
         "vote_average":6.1,
         "title":"Fifty Shades Freed",
         "popularity":68.203,
         "poster_path":"/jjPJ4s3DWZZvI4vw8Xfi4Vqa1Q8.jpg",
         "original_language":"en",
         "original_title":"Fifty Shades Freed",
         "genre_ids":[
            18,
            10749
         ],
         "backdrop_path":"/9ywA15OAiwjSTvg3cBs9B7kOCBF.jpg",
         "adult":false,
         "overview":"Believing they have left behind shadowy figures from their past, newlyweds Christian and Ana fully embrace an inextricable connection and shared life of luxury. But just as she steps into her role as Mrs. Grey and he relaxes into an unfamiliar stability, new threats could jeopardize their happy ending before it even begins.",
         "release_date":"2018-01-17"
      },
      {
         "vote_count":7083,
         "id":920,
         "video":false,
         "vote_average":6.7,
         "title":"Cars",
         "popularity":67.548,
         "poster_path":"/5damnMcRFKSjhCirgX3CMa88MBj.jpg",
         "original_language":"en",
         "original_title":"Cars",
         "genre_ids":[
            16,
            12,
            35,
            10751
         ],
         "backdrop_path":"/a1MlbLBk5Sy6YvMbSuKfwGlDVlb.jpg",
         "adult":false,
         "overview":"Lightning McQueen, a hotshot rookie race car driven to succeed, discovers that life is about the journey, not the finish line, when he finds himself unexpectedly detoured in the sleepy Route 66 town of Radiator Springs. On route across the country to the big Piston Cup Championship in California to compete against two seasoned pros, McQueen gets to know the town's offbeat characters.",
         "release_date":"2006-06-08"
      },
      {
         "vote_count":7,
         "id":543103,
         "video":false,
         "vote_average":4.3,
         "title":"Kamen Rider Heisei Generations FOREVER",
         "popularity":62.104,
         "poster_path":"/6sOFQDlkY6El1B2P5gklzJfVdsT.jpg",
         "original_language":"ja",
         "original_title":"仮面ライダー平成ジェネレーションズFOREVER",
         "genre_ids":[
            28,
            12,
            878
         ],
         "backdrop_path":"/uufTqD2CSn1NqL3cXEl4Vp3bCav.jpg",
         "adult":false,
         "overview":"In the world of Sougo Tokiwa and Sento Kiryu, their \"companions\" are losing their memories one after the other as they're replaced by other people. The Super Time Jacker, Tid , appears before them. He orders his powerful underlings, Another Double and Another Den-O, to pursue a young boy called Shingo. While fighting to protect Shingo, Sougo meets Ataru, a young man who loves Riders, but Ataru says that Kamen Riders aren't real. What is the meaning of those words? While the mystery deepens, the true enemy that Sougo and Sento must defeat appears in the Kuriogatake mountain...",
         "release_date":"2018-12-22"
      },
      {
         "vote_count":5430,
         "id":335983,
         "video":false,
         "vote_average":6.6,
         "title":"Venom",
         "popularity":61.304,
         "poster_path":"/2uNW4WbgBXL25BAbXGLnLqX71Sw.jpg",
         "original_language":"en",
         "original_title":"Venom",
         "genre_ids":[
            878,
            28
         ],
         "backdrop_path":"/VuukZLgaCrho2Ar8Scl9HtV3yD.jpg",
         "adult":false,
         "overview":"Investigative journalist Eddie Brock attempts a comeback following a scandal, but accidentally becomes the host of Venom, a violent, super powerful alien symbiote. Soon, he must rely on his newfound powers to protect the world from a shadowy organization looking for a symbiote of their own.",
         "release_date":"2018-09-28"
      },
      {
         "vote_count":784,
         "id":438799,
         "video":false,
         "vote_average":6.7,
         "title":"Overlord",
         "popularity":60.781,
         "poster_path":"/l76Rgp32z2UxjULApxGXAPpYdAP.jpg",
         "original_language":"en",
         "original_title":"Overlord",
         "genre_ids":[
            27,
            10752,
            878
         ],
         "backdrop_path":"/iEQgMiqCIzS1osIuafgctvluGj5.jpg",
         "adult":false,
         "overview":"France, June 1944. On the eve of D-Day, some American paratroopers fall behind enemy lines after their aircraft crashes while on a mission to destroy a radio tower in a small village near the beaches of Normandy. After reaching their target, the surviving paratroopers realise that, in addition to fighting the Nazi troops that patrol the village, they also must fight against something else.",
         "release_date":"2018-11-01"
      },
      {
         "vote_count":1782,
         "id":480530,
         "video":false,
         "vote_average":6.6,
         "title":"Creed II",
         "popularity":60.343,
         "poster_path":"/v3QyboWRoA4O9RbcsqH8tJMe8EB.jpg",
         "original_language":"en",
         "original_title":"Creed II",
         "genre_ids":[
            18
         ],
         "backdrop_path":"/6JHYYbvoSuQ95ceGx8Oeg8zzAjg.jpg",
         "adult":false,
         "overview":"Between personal obligations and training for his next big fight against an opponent with ties to his family's past, Adonis Creed is up against the challenge of his life.",
         "release_date":"2018-11-21"
      },
      {
         "vote_count":8037,
         "id":122917,
         "video":false,
         "vote_average":7.2,
         "title":"The Hobbit: The Battle of the Five Armies",
         "popularity":60.306,
         "poster_path":"/9zRzFJuaj0CHIOhAkcCcFTvyu2X.jpg",
         "original_language":"en",
         "original_title":"The Hobbit: The Battle of the Five Armies",
         "genre_ids":[
            28,
            12,
            14
         ],
         "backdrop_path":"/qhH3GyIfAnGv1pjdV3mw03qAilg.jpg",
         "adult":false,
         "overview":"Immediately after the events of The Desolation of Smaug, Bilbo and the dwarves try to defend Erebor's mountain of treasure from others who claim it: the men of the ruined Laketown and the elves of Mirkwood. Meanwhile an army of Orcs led by Azog the Defiler is marching on Erebor, fueled by the rise of the dark lord Sauron. Dwarves, elves and men must unite, and the hope for Middle-Earth falls into Bilbo's hands.",
         "release_date":"2014-12-10"
      },
      {
         "vote_count":58,
         "id":454294,
         "video":false,
         "vote_average":6,
         "title":"The Kid Who Would Be King",
         "popularity":59.776,
         "poster_path":"/kBuvLX6zynQP0sjyqbXV4jNaZ4E.jpg",
         "original_language":"en",
         "original_title":"The Kid Who Would Be King",
         "genre_ids":[
            28,
            12,
            14,
            10751
         ],
         "backdrop_path":"/jmbgxBd86MshzQQvv5laKvOKoMm.jpg",
         "adult":false,
         "overview":"Old-school magic meets the modern world when young Alex stumbles upon the mythical sword Excalibur. He soon unites his friends and enemies, and they become knights who join forces with the legendary wizard Merlin. Together, they must save mankind from the wicked enchantress Morgana and her army of supernatural warriors.",
         "release_date":"2019-01-16"
      },
      {
         "vote_count":1954,
         "id":404368,
         "video":false,
         "vote_average":7.3,
         "title":"Ralph Breaks the Internet",
         "popularity":59.517,
         "poster_path":"/lvfIaThG5HA8THf76nghKinjjji.jpg",
         "original_language":"en",
         "original_title":"Ralph Breaks the Internet",
         "genre_ids":[
            10751,
            16,
            35,
            14
         ],
         "backdrop_path":"/88poTBTafMXaz73vYi3c74g0y2k.jpg",
         "adult":false,
         "overview":"Video game bad guy Ralph and fellow misfit Vanellope von Schweetz must risk it all by traveling to the World Wide Web in search of a replacement part to save Vanellope's video game, \"Sugar Rush.\" In way over their heads, Ralph and Vanellope rely on the citizens of the internet -- the netizens -- to help navigate their way, including an entrepreneur named Yesss, who is the head algorithm and the heart and soul of trend-making site BuzzzTube.",
         "release_date":"2018-11-20"
      },
      {
         "vote_count":0,
         "id":449924,
         "video":false,
         "vote_average":0,
         "title":"Ip Man 4",
         "popularity":59.209,
         "poster_path":"/rULoS40bBppuMcyr8KE4FHBs3zp.jpg",
         "original_language":"cn",
         "original_title":"葉問4",
         "genre_ids":[
            28,
            18,
            36
         ],
         "backdrop_path":null,
         "adult":false,
         "overview":"Ip Man 4 is an upcoming Hong Kong biographical martial arts film directed by Wilson Yip and produced by Raymond Wong. It is the fourth in the Ip Man film series based on the life of the Wing Chun grandmaster of the same name and features Donnie Yen reprising the role. The film began production in April 2018 and ended in July the same year.",
         "release_date":"2019-10-18"
      },
      {
         "vote_count":5203,
         "id":363088,
         "video":false,
         "vote_average":6.9,
         "title":"Ant-Man and the Wasp",
         "popularity":59.133,
         "poster_path":"/rv1AWImgx386ULjcf62VYaW8zSt.jpg",
         "original_language":"en",
         "original_title":"Ant-Man and the Wasp",
         "genre_ids":[
            28,
            12,
            878,
            35,
            10751
         ],
         "backdrop_path":"/6P3c80EOm7BodndGBUAJHHsHKrp.jpg",
         "adult":false,
         "overview":"Just when his time under house arrest is about to end, Scott Lang once again puts his freedom at risk to help Hope van Dyne and Dr. Hank Pym dive into the quantum realm and try to accomplish, against time and any chance of success, a very dangerous rescue mission.",
         "release_date":"2018-07-04"
      },
      {
         "vote_count":18491,
         "id":24428,
         "video":false,
         "vote_average":7.6,
         "title":"The Avengers",
         "popularity":57.881,
         "poster_path":"/cezWGskPY5x7GaglTTRN4Fugfb8.jpg",
         "original_language":"en",
         "original_title":"The Avengers",
         "genre_ids":[
            878,
            28,
            12
         ],
         "backdrop_path":"/hbn46fQaRmlpBuUrEiFqv0GDL6Y.jpg",
         "adult":false,
         "overview":"When an unexpected enemy emerges and threatens global safety and security, Nick Fury, director of the international peacekeeping agency known as S.H.I.E.L.D., finds himself in need of a team to pull the world back from the brink of disaster. Spanning the globe, a daring recruitment effort begins!",
         "release_date":"2012-04-25"
      }
   ]
}