{
  "page": 1,
  "total_results": 19802,
  "total_pages": 991,
  "results": [
    {
      "vote_count": 197,
      "id": 456740,
      "video": false,
      "vote_average": 5.3,
      "title": "Hellboy",
      "popularity": 414.203,
      "poster_path": "/nUXCJMnAiwCpNPZuJH2n6h5hGtF.jpg",
      "original_language": "en",
      "original_title": "Hellboy",
      "genre_ids": [
        28,
        12,
        14
      ],
      "backdrop_path": "/5BkSkNtfrnTuKOtTaZhl8avn4wU.jpg",
      "adult": false,
      "overview": "Hellboy comes to England, where he must defeat Nimue, Merlin's consort and the Blood Queen. But their battle will bring about the end of the world, a fate he desperately tries to turn away.",
      "release_date": "2019-04-10"
    },
    {
      "vote_count": 417,
      "id": 537915,
      "video": false,
      "vote_average": 6.5,
      "title": "After",
      "popularity": 310.977,
      "poster_path": "/u3B2YKUjWABcxXZ6Nm9h10hLUbh.jpg",
      "original_language": "en",
      "original_title": "After",
      "genre_ids": [
        18,
        10749
      ],
      "backdrop_path": "/8lESY7UGpOsbL2caib9Qe4bOebF.jpg",
      "adult": false,
      "overview": "A young woman falls for a guy with a dark secret and the two embark on a rocky relationship.",
      "release_date": "2019-04-11"
    },
    {
      "vote_count": 1074,
      "id": 287947,
      "video": false,
      "vote_average": 7.3,
      "title": "Shazam!",
      "popularity": 301.236,
      "poster_path": "/xnopI5Xtky18MPhK40cZAGAOVeV.jpg",
      "original_language": "en",
      "original_title": "Shazam!",
      "genre_ids": [
        35,
        12,
        14
      ],
      "backdrop_path": "/bi4jh0Kt0uuZGsGJoUUfqmbrjQg.jpg",
      "adult": false,
      "overview": "A boy is given the ability to become an adult superhero in times of need with a single magic word.",
      "release_date": "2019-03-23"
    },
    {
      "vote_count": 3981,
      "id": 299537,
      "video": false,
      "vote_average": 7.2,
      "title": "Captain Marvel",
      "popularity": 254.956,
      "poster_path": "/AtsgWhDnHTq68L0lLsUrCnM7TjG.jpg",
      "original_language": "en",
      "original_title": "Captain Marvel",
      "genre_ids": [
        28,
        12,
        878
      ],
      "backdrop_path": "/w2PMyoyLU22YvrGK3smVM9fW1jj.jpg",
      "adult": false,
      "overview": "The story follows Carol Danvers as she becomes one of the universe’s most powerful heroes when Earth is caught in the middle of a galactic war between two alien races. Set in the 1990s, Captain Marvel is an all-new adventure from a previously unseen period in the history of the Marvel Cinematic Universe.",
      "release_date": "2019-03-06"
    },
    {
      "vote_count": 1523,
      "id": 166428,
      "video": false,
      "vote_average": 7.6,
      "title": "How to Train Your Dragon: The Hidden World",
      "popularity": 244.442,
      "poster_path": "/xvx4Yhf0DVH8G4LzNISpMfFBDy2.jpg",
      "original_language": "en",
      "original_title": "How to Train Your Dragon: The Hidden World",
      "genre_ids": [
        16,
        10751,
        12
      ],
      "backdrop_path": "/lFwykSz3Ykj1Q3JXJURnGUTNf1o.jpg",
      "adult": false,
      "overview": "As Hiccup fulfills his dream of creating a peaceful dragon utopia, Toothless’ discovery of an untamed, elusive mate draws the Night Fury away. When danger mounts at home and Hiccup’s reign as village chief is tested, both dragon and rider must make impossible decisions to save their kind.",
      "release_date": "2019-01-03"
    },
    {
      "vote_count": 46,
      "id": 299534,
      "video": false,
      "vote_average": 6.1,
      "title": "Avengers: Endgame",
      "popularity": 215.018,
      "poster_path": "/or06FN3Dka5tukK1e9sl16pB3iy.jpg",
      "original_language": "en",
      "original_title": "Avengers: Endgame",
      "genre_ids": [
        12,
        878,
        28
      ],
      "backdrop_path": "/7RyHsO4yDXtBv1zUU3mTpHeQ0d5.jpg",
      "adult": false,
      "overview": "After the devastating events of Avengers: Infinity War, the universe is in ruins due to the efforts of the Mad Titan, Thanos. With the help of remaining allies, the Avengers must assemble once more in order to undo Thanos' actions and restore order to the universe once and for all, no matter what consequences may be in store.",
      "release_date": "2019-04-24"
    },
    {
      "vote_count": 11,
      "id": 495925,
      "video": false,
      "vote_average": 6.4,
      "title": "Doraemon the Movie: Nobita's Treasure Island",
      "popularity": 182.911,
      "poster_path": "/cmJ71gdZxCqkMUvGwWgSg3MK7pC.jpg",
      "original_language": "ja",
      "original_title": "Doraemon en la misteriosa isla del tesoro",
      "genre_ids": [
        16
      ],
      "backdrop_path": "/8OamoIWfC9zmhwhh1PPaBcDoQaH.jpg",
      "adult": false,
      "overview": "The story is based on Robert Louis Stevenson's Treasure Island novel.",
      "release_date": "2018-03-03"
    },
    {
      "vote_count": 2314,
      "id": 450465,
      "video": false,
      "vote_average": 6.5,
      "title": "Glass",
      "popularity": 181.907,
      "poster_path": "/svIDTNUoajS8dLEo7EosxvyAsgJ.jpg",
      "original_language": "en",
      "original_title": "Glass",
      "genre_ids": [
        53,
        9648,
        18,
        14,
        878
      ],
      "backdrop_path": "/lvjscO8wmpEbIfOEZi92Je8Ktlg.jpg",
      "adult": false,
      "overview": "In a series of escalating encounters, security guard David Dunn uses his supernatural abilities to track Kevin Wendell Crumb, a disturbed man who has twenty-four personalities. Meanwhile, the shadowy presence of Elijah Price emerges as an orchestrator who holds secrets critical to both men.",
      "release_date": "2019-01-16"
    },
    {
      "vote_count": 12743,
      "id": 299536,
      "video": false,
      "vote_average": 8.3,
      "title": "Avengers: Infinity War",
      "popularity": 153.208,
      "poster_path": "/7WsyChQLEftFiDOVTGkv3hFpyyt.jpg",
      "original_language": "en",
      "original_title": "Avengers: Infinity War",
      "genre_ids": [
        12,
        28,
        14
      ],
      "backdrop_path": "/bOGkgRGdhrBYJSLpXaxhXVstddV.jpg",
      "adult": false,
      "overview": "As the Avengers and their allies have continued to protect the world from threats too large for any one hero to handle, a new danger has emerged from the cosmic shadows: Thanos. A despot of intergalactic infamy, his goal is to collect all six Infinity Stones, artifacts of unimaginable power, and use them to inflict his twisted will on all of reality. Everything the Avengers have fought for has led up to this moment - the fate of Earth and existence itself has never been more uncertain.",
      "release_date": "2018-04-25"
    },
    {
      "vote_count": 867,
      "id": 522681,
      "video": false,
      "vote_average": 6.3,
      "title": "Escape Room",
      "popularity": 142.201,
      "poster_path": "/8yZAx7tlKRZIg7pJfaPhl00yHIQ.jpg",
      "original_language": "en",
      "original_title": "Escape Room",
      "genre_ids": [
        53
      ],
      "backdrop_path": "/mWLljCmpqlcYQh7uh51BBMwCZwN.jpg",
      "adult": false,
      "overview": "Six strangers find themselves in circumstances beyond their control, and must use their wits to survive.",
      "release_date": "2019-01-03"
    },
    {
      "vote_count": 911,
      "id": 329996,
      "video": false,
      "vote_average": 6.7,
      "title": "Dumbo",
      "popularity": 128.022,
      "poster_path": "/279PwJAcelI4VuBtdzrZASqDPQr.jpg",
      "original_language": "en",
      "original_title": "Dumbo",
      "genre_ids": [
        12,
        10751,
        14
      ],
      "backdrop_path": "/5tFt6iuGnKapHl5tw0X0cKcnuVo.jpg",
      "adult": false,
      "overview": "A young elephant, whose oversized ears enable him to fly, helps save a struggling circus, but when the circus plans a new venture, Dumbo and his friends discover dark secrets beneath its shiny veneer.",
      "release_date": "2019-03-27"
    },
    {
      "vote_count": 1996,
      "id": 424783,
      "video": false,
      "vote_average": 6.4,
      "title": "Bumblebee",
      "popularity": 126.733,
      "poster_path": "/fw02ONlDhrYjTSZV8XO6hhU3ds3.jpg",
      "original_language": "en",
      "original_title": "Bumblebee",
      "genre_ids": [
        28,
        12,
        878
      ],
      "backdrop_path": "/wtZj5nn6hVwgakPdg6y6gm3eFXU.jpg",
      "adult": false,
      "overview": "On the run in the year 1987, Bumblebee finds refuge in a junkyard in a small Californian beach town. Charlie, on the cusp of turning 18 and trying to find her place in the world, discovers Bumblebee, battle-scarred and broken.  When Charlie revives him, she quickly learns this is no ordinary yellow VW bug.",
      "release_date": "2018-12-15"
    },
    {
      "vote_count": 1094,
      "id": 458723,
      "video": false,
      "vote_average": 7.2,
      "title": "Us",
      "popularity": 118.608,
      "poster_path": "/ux2dU1jQ2ACIMShzB3yP93Udpzc.jpg",
      "original_language": "en",
      "original_title": "Us",
      "genre_ids": [
        53,
        27
      ],
      "backdrop_path": "/jNUCddkM1fjYcFIcEwFjc7s2H4V.jpg",
      "adult": false,
      "overview": "Husband and wife Gabe and Adelaide Wilson take their kids to their beach house expecting to unplug and unwind with friends. But as night descends, their serenity turns to tension and chaos when some shocking visitors arrive uninvited.",
      "release_date": "2019-03-14"
    },
    {
      "vote_count": 8,
      "id": 543103,
      "video": false,
      "vote_average": 4.8,
      "title": "Kamen Rider Heisei Generations FOREVER",
      "popularity": 109.363,
      "poster_path": "/6sOFQDlkY6El1B2P5gklzJfVdsT.jpg",
      "original_language": "ja",
      "original_title": "仮面ライダー平成ジェネレーションズFOREVER",
      "genre_ids": [
        28,
        12,
        878
      ],
      "backdrop_path": "/uufTqD2CSn1NqL3cXEl4Vp3bCav.jpg",
      "adult": false,
      "overview": "In the world of Sougo Tokiwa and Sento Kiryu, their \"companions\" are losing their memories one after the other as they're replaced by other people. The Super Time Jacker, Tid , appears before them. He orders his powerful underlings, Another Double and Another Den-O, to pursue a young boy called Shingo. While fighting to protect Shingo, Sougo meets Ataru, a young man who loves Riders, but Ataru says that Kamen Riders aren't real. What is the meaning of those words? While the mystery deepens, the true enemy that Sougo and Sento must defeat appears in the Kuriogatake mountain...",
      "release_date": "2018-12-22"
    },
    {
      "vote_count": 3340,
      "id": 324857,
      "video": false,
      "vote_average": 8.4,
      "title": "Spider-Man: Into the Spider-Verse",
      "popularity": 100.235,
      "poster_path": "/iiZZdoQBEYBv6id8su7ImL0oCbD.jpg",
      "original_language": "en",
      "original_title": "Spider-Man: Into the Spider-Verse",
      "genre_ids": [
        28,
        12,
        16,
        878,
        35
      ],
      "backdrop_path": "/7d6EY00g1c39SGZOoCJ5Py9nNth.jpg",
      "adult": false,
      "overview": "Miles Morales is juggling his life between being a high school student and being a spider-man. When Wilson \"Kingpin\" Fisk uses a super collider, others from across the Spider-Verse are transported to this dimension.",
      "release_date": "2018-12-07"
    },
    {
      "vote_count": 7258,
      "id": 920,
      "video": false,
      "vote_average": 6.7,
      "title": "Cars",
      "popularity": 98.501,
      "poster_path": "/5damnMcRFKSjhCirgX3CMa88MBj.jpg",
      "original_language": "en",
      "original_title": "Cars",
      "genre_ids": [
        16,
        12,
        35,
        10751
      ],
      "backdrop_path": "/a1MlbLBk5Sy6YvMbSuKfwGlDVlb.jpg",
      "adult": false,
      "overview": "Lightning McQueen, a hotshot rookie race car driven to succeed, discovers that life is about the journey, not the finish line, when he finds himself unexpectedly detoured in the sleepy Route 66 town of Radiator Springs. On route across the country to the big Piston Cup Championship in California to compete against two seasoned pros, McQueen gets to know the town's offbeat characters.",
      "release_date": "2006-06-08"
    },
    {
      "vote_count": 294,
      "id": 464504,
      "video": false,
      "vote_average": 5.6,
      "title": "A Madea Family Funeral",
      "popularity": 97.37,
      "poster_path": "/sFvOTUlZrIxCLdmz1fC16wK0lme.jpg",
      "original_language": "en",
      "original_title": "A Madea Family Funeral",
      "genre_ids": [
        35
      ],
      "backdrop_path": "/piGjUloiaq6qTpaDLisyDyEsx9i.jpg",
      "adult": false,
      "overview": "A joyous family reunion becomes a hilarious nightmare as Madea and the crew travel to backwoods Georgia, where they find themselves unexpectedly planning a funeral that might unveil unpleasant family secrets.",
      "release_date": "2019-03-01"
    },
    {
      "vote_count": 11927,
      "id": 283995,
      "video": false,
      "vote_average": 7.7,
      "title": "Guardians of the Galaxy Vol. 2",
      "popularity": 96.371,
      "poster_path": "/y4MBh0EjBlMuOzv9axM4qJlmhzz.jpg",
      "original_language": "en",
      "original_title": "Guardians of the Galaxy Vol. 2",
      "genre_ids": [
        28,
        12,
        35,
        878
      ],
      "backdrop_path": "/aJn9XeesqsrSLKcHfHP4u5985hn.jpg",
      "adult": false,
      "overview": "The Guardians must fight to keep their newfound family together as they unravel the mysteries of Peter Quill's true parentage.",
      "release_date": "2017-04-19"
    },
    {
      "vote_count": 11624,
      "id": 284054,
      "video": false,
      "vote_average": 7.4,
      "title": "Black Panther",
      "popularity": 95.155,
      "poster_path": "/uxzzxijgPIY7slzFvMotPv8wjKA.jpg",
      "original_language": "en",
      "original_title": "Black Panther",
      "genre_ids": [
        28,
        12,
        14,
        878
      ],
      "backdrop_path": "/6ELJEzQJ3Y45HczvreC3dg0GV5R.jpg",
      "adult": false,
      "overview": "King T'Challa returns home from America to the reclusive, technologically advanced African nation of Wakanda to serve as his country's new leader. However, T'Challa soon finds that he is challenged for the throne by factions within his own country as well as without. Using powers reserved to Wakandan kings, T'Challa assumes the Black Panther mantel to join with girlfriend Nakia, the queen-mother, his princess-kid sister, members of the Dora Milaje (the Wakandan 'special forces') and an American secret agent, to prevent Wakanda from being dragged into a world war.",
      "release_date": "2018-02-13"
    },
    {
      "vote_count": 22,
      "id": 485811,
      "video": false,
      "vote_average": 4.2,
      "title": "Redcon-1",
      "popularity": 94.907,
      "poster_path": "/jOYUbe61DQiY628inVkR1KERS30.jpg",
      "original_language": "en",
      "original_title": "Redcon-1",
      "genre_ids": [
        28,
        27
      ],
      "backdrop_path": "/palbhPOSYf2g1p18vWd91dDhZLM.jpg",
      "adult": false,
      "overview": "After a zombie apocalypse spreads from a London prison, the UK is brought to its knees. The spread of the virus is temporarily contained but, without a cure, it’s only a matter of time before it breaks its boundaries and the biggest problem of all… any zombies with combat skills are now enhanced. With the South East of England quarantined from the rest of the world using fortified borders, intelligence finds that the scientist responsible for the outbreak is alive and well in London. With his recovery being the only hope of a cure, a squad of eight Special Forces soldiers is sent on a suicide mission to the city, now ruled by the undead, with a single task: get him out alive within 72 hours by any means necessary. What emerges is an unlikely pairing on a course to save humanity against ever-rising odds.",
      "release_date": "2018-09-28"
    }
  ]
}